------------------------------------------------------------------------

  Warnings for configuration sim
  --------

  Tests missed for lack of thorns:

    tov_whisky in ADMMass
      (EinsteinAnalysis/ADMMass/test/tov_whisky.par)
      Missing:  WHISKY WHISKY_TOVSOLVERC

    alias_datasets in CarpetIOHDF5
      (Carpet/CarpetIOHDF5/test/alias_datasets.par)
      Missing:  WAVETOYMOL

    input_initial_data in CarpetIOHDF5
      (Carpet/CarpetIOHDF5/test/input_initial_data.par)
      Missing:  WAVETOYMOL

    test_BSSN_MoL_Carpet in CarpetRegrid
      (1+log sliced black hole, ADM_BSSN, Iterative CN, Carpet with 2 levels)
      Missing:  BSSN_MOL

    test_BSSN_MoL_Carpet_keep in CarpetRegrid
      (1+log sliced black hole, ADM_BSSN, Iterative CN, Carpet with 2 levels)
      Missing:  BSSN_MOL

    test_BSSN_MoL_Carpet in CarpetRegrid2
      (1+log sliced black hole, ADM_BSSN, Iterative CN, Carpet with 2 levels)
      Missing:  BSSN_MOL

    regrid in CarpetRegridTest
      (Carpet/CarpetRegridTest/test/regrid.par)
      Missing:  WHISKY WHISKY_INIT_DATA ADMCONSTRAINTS BSSN_MOL WHISKY_RNSID

    extract_physical in Extract
      (Extract waveforms from BH)
      Missing:  ADM

    test_brilldata_1 in IDBrillData
      (Brill wave initial data (Physical, BAM))
      Missing:  BAM_ELLIPTIC

    test_brilldata_2 in IDBrillData
      (Brill wave initial data (Conformal, BAM))
      Missing:  BAM_ELLIPTIC

    charge_tatelliptic_petsc in Poisson
      (CactusExamples/Poisson/test/charge_tatelliptic_petsc.par)
      Missing:  PETSC TATPETSC

    bam in TwoPunctures
      (EinsteinInitialData/TwoPunctures/test/bam.par)
      Missing:  ADMCONSTRAINTS BAM_ELLIPTIC

    idpuncture in TwoPunctures
      (EinsteinInitialData/TwoPunctures/test/idpuncture.par)
      Missing:  ADMCONSTRAINTS IDPUNCTURE TATJACOBI TATMG TATPETSC

  Tests missed for different number of processors required:

    test_split_interior in Carpet
      (Carpet/Carpet/test/test_split_interior.par)
      Requires 4 processors

    CarpetWaveToyRecover_test_4proc in CarpetIOHDF5
      (Carpet/CarpetIOHDF5/test/CarpetWaveToyRecover_test_4proc.par)
      Requires 4 processors

  Tests with different number of test files:

    CarpetRegrid2 (regrid2_2cen)
      Test created 1 extra files: carpet-grid.asc
    CarpetRegrid2 (regrid2_2cen_minfrac)
      Test created 1 extra files: carpet-grid.asc
    GRHydro (cylexp_tvd_mc2_hlle_dc)
      Test created 1 extra files: grhydro-psidc.y.asc
    Hydro_InitExcision (diag_flip_pugh_eno)
      Test created 2 extra files: scon[2]_minimum.asc vel[2]_minimum.asc
    Hydro_InitExcision (diag_pugh_eno)
      Test created 2 extra files: scon[2]_minimum.asc vel[2]_minimum.asc
    Hydro_InitExcision (sphere_pugh_ppm)
      Test created 2 extra files: scon[2]_minimum.asc vel[2]_minimum.asc
    Hydro_InitExcision (x_flip_pugh_eno)
      Test created 2 extra files: scon[2]_minimum.asc vel[2]_minimum.asc
    Hydro_InitExcision (x_pugh_eno)
      Test created 2 extra files: scon[2]_minimum.asc vel[2]_minimum.asc
    IDAxiOddBrillBH (E2xeon_test_axioddbh)
      Test created 12 extra files: betax.dl betax.xl betax.yl betax.zl betay.dl betay.xl betay.yl betay.zl betaz.dl betaz.xl betaz.yl betaz.zl
    IDAxiOddBrillBH (test_axioddbh)
      Test created 24 extra files: betax_3D_diagonal.xg betax_maximum.xg betax_minimum.xg betax_norm1.xg betax_norm2.xg betax_x_[15][15].xg betax_y_[15][15].xg betax_z_[15][15].xg betay_3D_diagonal.xg betay_maximum.xg betay_minimum.xg betay_norm1.xg betay_norm2.xg betay_x_[15][15].xg betay_y_[15][15].xg betay_z_[15][15].xg betaz_3D_diagonal.xg betaz_maximum.xg betaz_minimum.xg betaz_norm1.xg betaz_norm2.xg betaz_x_[15][15].xg betaz_y_[15][15].xg betaz_z_[15][15].xg
    LoopControl (test-minkowski-carpet-1lev)
      Test created 1 extra files: carpetlib-memory-statistics
    Multipole (test_22)
      Test created 4 extra files: mp_harmonic_l0_m0_r8.00.asc mp_harmonic_l1_m-1_r8.00.asc mp_harmonic_l1_m0_r8.00.asc mp_harmonic_l1_m1_r8.00.asc
    Multipole (test_31)
      Test created 4 extra files: mp_harmonic_l0_m0_r8.00.asc mp_harmonic_l1_m-1_r8.00.asc mp_harmonic_l1_m0_r8.00.asc mp_harmonic_l1_m1_r8.00.asc
    Multipole (test_44)
      Test created 4 extra files: mp_harmonic_l0_m0_r8.00.asc mp_harmonic_l1_m-1_r8.00.asc mp_harmonic_l1_m0_r8.00.asc mp_harmonic_l1_m1_r8.00.asc
    TestLocalInterp2 (test_local_interp_2)
      Test created 1 extra files: symmetry.xg
    TwoPunctures (twopunctures)
      Test created 51 extra files: H_x_[21][21].xg H_y_[13][21].xg H_z_[13][21].xg M1_x_[21][21].xg M1_y_[13][21].xg M1_z_[13][21].xg M2_x_[21][21].xg M2_y_[13][21].xg M2_z_[13][21].xg M3_x_[21][21].xg M3_y_[13][21].xg M3_z_[13][21].xg gxx_x_[21][21].xg gxx_y_[13][21].xg gxx_z_[13][21].xg gxy_x_[21][21].xg gxy_y_[13][21].xg gxy_z_[13][21].xg gxz_x_[21][21].xg gxz_y_[13][21].xg gxz_z_[13][21].xg gyy_x_[21][21].xg gyy_y_[13][21].xg gyy_z_[13][21].xg gyz_x_[21][21].xg gyz_y_[13][21].xg gyz_z_[13][21].xg gzz_x_[21][21].xg gzz_y_[13][21].xg gzz_z_[13][21].xg kxx_x_[21][21].xg kxx_y_[13][21].xg kxx_z_[13][21].xg kxy_x_[21][21].xg kxy_y_[13][21].xg kxy_z_[13][21].xg kxz_x_[21][21].xg kxz_y_[13][21].xg kxz_z_[13][21].xg kyy_x_[21][21].xg kyy_y_[13][21].xg kyy_z_[13][21].xg kyz_x_[21][21].xg kyz_y_[13][21].xg kyz_z_[13][21].xg kzz_x_[21][21].xg kzz_y_[13][21].xg kzz_z_[13][21].xg puncture_u_x_[21][21].xg puncture_u_y_[13][21].xg puncture_u_z_[13][21].xg

------------------------------------------------------------------------

  Testsuite Summary for configuration sim
  -----------------

  Suitable testsuite parameter files found in:

    ADMMass [2]
    AHFinder [2]
    AHFinderDirect [27]
    Baikal [2]
    BaikalVacuum [2]
    BoxInBox [7]
    CT_MultiLevel [3]
    Carpet [7]
    CarpetEvolutionMask [3]
    CarpetIOASCII [4]
    CarpetIOHDF5 [6]
    CarpetIOScalar [5]
    CarpetIntegrateTest [2]
    CarpetInterp [2]
    CarpetProlongateTest [26]
    CarpetReduce [4]
    CarpetRegrid2 [4]
    Cartoon2D [4]
    Coordinates [1]
    DNSdata [1]
    Dissipation [2]
    DistortedBHIVP [2]
    EOS_Omni [1]
    EinsteinExact_Test [7]
    Exact [3]
    Extract [1]
    FLRWSolver [1]
    FishboneMoncriefID [1]
    FluxWaveToyX [3]
    GRHayLHD [2]
    GRHayLHDX [1]
    GRHydro [27]
    GRHydro_InitData [2]
    GiRaFFE [9]
    HighOrderWaveTest [1]
    Hydro_Analysis [2]
    Hydro_InitExcision [5]
    Hydro_RNSID [1]
    IDAnalyticBH [3]
    IDAxiBrillBH [2]
    IDAxiOddBrillBH [2]
    IDConstraintViolate [1]
    IDLinearWaves [2]
    IDScalarWaveElliptic [1]
    IOHDF5 [1]
    IllinoisGRMHD [5]
    InterpToArray [2]
    LeanBSSNMoL [6]
    LlamaWaveToy [2]
    LoopControl [1]
    ML_BSSN_Test [10]
    ML_CCZ4_Test [2]
    ML_WaveToy_Test [3]
    MemSpeed [1]
    Multipole [9]
    NPScalars [1]
    NPScalars_Proca [1]
    NaNChecker [1]
    Outflow [1]
    PeriodicCarpet [3]
    ProcaEvolve [2]
    Proca_simpleID [1]
    QuasiLocalMeasures [7]
    ReadInterpolate [2]
    RotatingDBHIVP [2]
    RotatingSymmetry180 [5]
    RotatingSymmetry90 [3]
    SIMDWaveToyX [1]
    SampleBoundary [1]
    ScalarEvolve [3]
    Seed_Magnetic_Fields [2]
    SlabTest [1]
    SpacetimeWaveToyX [1]
    SphericalHarmonicRecon [1]
    SphericalHarmonicReconGen [2]
    StaggeredWaveToyX [1]
    TOVSolver [5]
    TOVola [2]
    TerminationTrigger [3]
    TestArrayGroup [1]
    TestArrays [2]
    TestComplex [2]
    TestDerivs [3]
    TestFpointerNULL [1]
    TestGlobalReduce [17]
    TestInterpolate [2]
    TestLocalInterp2 [1]
    TestLocalReduce [3]
    TestLoop [1]
    TestLoopControl [1]
    TestMoL [13]
    TestNorms [1]
    TestODESolvers [8]
    TestODESolvers2 [8]
    TestOutput [10]
    TestPar [1]
    TestProlongate [19]
    TestReadWrite [1]
    Trigger [1]
    TwoPunctures [4]
    TwoPunctures_BBHSF [1]
    TwoPunctures_KerrProca [1]
    Vectors [1]
    VolumeIntegrals_GRMHD [1]
    VolumeIntegrals_vacuum [1]
    WaveBinarySource [1]
    WaveMoL [1]
    WaveToy1DF77 [1]
    WaveToy2DF77 [1]
    WaveToyC [2]
    WaveToyCXX [1]
    WaveToyExtra [1]
    WaveToyF77 [2]
    WaveToyF90 [3]
    WaveToyFreeF90 [1]
    WaveToyX [4]
    WeylScal4 [3]
    particle_tracerET [1]
    smallbPoynET [1]

  Details:

    ADMMass:
      tov (134.4 s)
      tov_carpet (0.7 s)
    AHFinder:
      test_AHF_1 (0.6 s)
      test_AHF_2 (0.7 s)
    AHFinderDirect:
      Kerr (1.0 s)
      Kerr-Cartoon (1.1 s)
      Kerr-Cartoon-EE (1.2 s)
      Kerr-EE (1.1 s)
      Kerr-definition-expansion (1.0 s)
      Kerr-definition-expansion-EE (1.1 s)
      Kerr-definition-expansion-product (1.0 s)
      Kerr-definition-expansion-product-EE (1.1 s)
      Kerr-definition-inner-expansion (1.0 s)
      Kerr-definition-inner-expansion-EE (1.1 s)
      Kerr-definition-mean-curvature (1.0 s)
      Kerr-definition-mean-curvature-EE (1.1 s)
      Kerr-modification-radius (1.3 s)
      Kerr-modification-radius-EE (1.4 s)
      Kerr-rotating-180 (1.1 s)
      Kerr-rotating-180-EE (1.1 s)
      Kerr-rotating-90 (1.1 s)
      Kerr-rotating-90-EE (1.1 s)
      Kerr-selection-areal-radius (3.1 s)
      Kerr-selection-areal-radius-EE (3.2 s)
      Kerr-selection-areal-radius-definition-expansion-product (3.1 s)
      Kerr-selection-areal-radius-definition-expansion-product-EE (3.2 s)
      Kerr-selection-mean-coordinate-radius (1.4 s)
      Kerr-selection-mean-coordinate-radius-EE (1.2 s)
      checkpointML-EE (3.7 s)
      misner1.2-025 (1.6 s)
      recoverML-EE (1.6 s)
    Baikal:
      Baikal_PreSync (5.2 s)
      magnetizedTOV-Baikal (4.8 s)
    BaikalVacuum:
      BaikalVacuum_EE_O8_sgw3d (1.1 s)
      BaikalVacuum_PreSync (1.1 s)
    BoxInBox:
      levels1 (0.5 s)
      levels2 (0.6 s)
      levels20 (1.1 s)
      levels3 (0.6 s)
      regions2 (0.7 s)
      regions3 (0.9 s)
      unigrid (0.5 s)
    CT_MultiLevel:
      boostedpuncture (2.5 s)
      constraints_spherical (11.5 s)
      poisson (8.7 s)
    Carpet:
      64k2 (0.6 s)
      kasner (0.7 s)
      kasner_amr (0.8 s)
      no-overlap (0.7 s)
      overlap (0.7 s)
      presync (0.6 s)
      test_restrict_sync (0.9 s)
    CarpetEvolutionMask:
      CarpetEvolutionMask_test (3.3 s)
      CarpetEvolutionMask_test_off (3.4 s)
      buffer_mask (0.7 s)
    CarpetIOASCII:
      compact (1.0 s)
      coords (0.7 s)
      grid-coords (0.7 s)
      newsep (0.7 s)
    CarpetIOHDF5:
      CarpetWaveToyNewRecover_test_1proc (0.9 s)
      CarpetWaveToyRecover_test_1proc (0.9 s)
      CarpetWaveToyRecover_test_2proc (0.9 s)
      newsep (1.9 s)
      nobuffers (0.8 s)
      presyncRecover (0.9 s)
    CarpetIOScalar:
      coords (0.6 s)
      coords2 (0.6 s)
      coords3 (0.6 s)
      coords4 (0.6 s)
      newsep (0.6 s)
    CarpetIntegrateTest:
      carpetintegrate (1.2 s)
      carpetintegrate-linear (1.2 s)
    CarpetInterp:
      waveinterp-1p (33.9 s)
      waveinterp-2p (50.8 s)
    CarpetProlongateTest:
      test_cc_horest_o3 (1.4 s)
      test_cc_horest_o5 (1.4 s)
      test_cc_o0 (1.2 s)
      test_cc_o1 (1.1 s)
      test_cc_o2 (1.2 s)
      test_cc_o3 (24.7 s)
      test_cc_o4 (1.3 s)
      test_cc_o5 (1.3 s)
      test_cc_rest_o0 (1.2 s)
      test_cc_rest_o1 (1.2 s)
      test_cc_rest_o2 (1.2 s)
      test_cc_rest_o3 (1.2 s)
      test_cc_rest_o4 (1.3 s)
      test_cc_rest_o5 (1.3 s)
      test_cc_tvd (1.5 s)
      test_cc_tvd_hi (7.2 s)
      test_cc_tvd_x (1.6 s)
      test_cc_tvd_y (1.5 s)
      test_cc_tvd_z (1.6 s)
      test_interp (4.3 s)
      test_o1 (1.2 s)
      test_o11 (1.6 s)
      test_o3 (1.2 s)
      test_o5 (1.3 s)
      test_o7 (1.5 s)
      test_o9 (1.5 s)
    CarpetReduce:
      nonstaggered (0.6 s)
      nonstaggered_excl (0.6 s)
      periodic_weight (0.6 s)
      staggered (0.6 s)
    CarpetRegrid2:
      regrid2_2D (0.7 s)
      regrid2_2cen (0.7 s)
      regrid2_2cen_minfrac (0.7 s)
      regrid2_granularity (0.7 s)
    Cartoon2D:
      carpet (0.7 s)
      schw-0050 (2.1 s)
      test_cartoon_2 (0.7 s)
      test_cartoon_3 (0.7 s)
    Coordinates:
      test7patch (14.1 s)
    DNSdata:
      DNSdata_test (22.2 s)
    Dissipation:
      test_ah (6.2 s)
      test_ob (6.0 s)
    DistortedBHIVP:
      E2xeon_test_dbh (0.6 s)
      test_dbh (0.6 s)
    EOS_Omni:
      eos_omni (0.5 s)
    EinsteinExact_Test:
      GaugeWave (0.6 s)
      KS-tilted-EE (2.8 s)
      KerrSchild (0.6 s)
      Minkowski (0.6 s)
      ModifiedSchwarzschildBL (0.6 s)
      ShiftedGaugeWave (0.6 s)
      Vaidya2 (0.6 s)
    Exact:
      Schwarzschild_EF (3.9 s)
      bowl-init (0.5 s)
      de_Sitter (0.6 s)
    Extract:
      qc0-mclachlan (3.7 s)
    FLRWSolver:
      FLRW_singlemode_test (0.8 s)
    FishboneMoncriefID:
      FishboneMoncrief_IllinoisGRMHD-LLR (1.8 s)
    FluxWaveToyX:
      radiative (0.6 s)
      reflecting (0.6 s)
      standing (0.6 s)
    GRHayLHD:
      Balsara0 (1.8 s)
      TOV (3.9 s)
    GRHayLHDX:
      Balsara0 (2.5 s)
    GRHydro:
      GRHydro_test_shock (0.6 s)
      GRHydro_test_shock_hllc (0.6 s)
      GRHydro_test_shock_mp5 (0.6 s)
      GRHydro_test_shock_ppm (0.6 s)
      GRHydro_test_shock_weno (0.6 s)
      GRHydro_test_tov_ppm_ML (1.4 s)
      GRHydro_test_tov_ppm_ML_disable_internal_excision (1.5 s)
      GRHydro_test_tov_ppm_no_trp_ML (1.5 s)
      balsara1_1d (0.8 s)
      balsara1_1d_dc (0.8 s)
      balsara1_2d (2.4 s)
      balsara1_2d_dc (0.9 s)
      balsara2_1d (0.8 s)
      balsara2_2d (2.6 s)
      balsara3_1d (0.8 s)
      balsara3_2d (0.8 s)
      balsara4_1d (1.8 s)
      balsara4_2d (0.8 s)
      balsara5_1d (0.8 s)
      balsara5_2d (0.9 s)
      cylexp_tvd_mc2_hlle (0.8 s)
      cylexp_tvd_mc2_hlle_dc (0.8 s)
      test_one_hybrid (0.6 s)
      test_tov_carpet_refined_nosync (1.2 s)
      tov_carpetevolutionmask (0.9 s)
      tov_carpetevolutionmask2 (1.0 s)
      tov_slowsector (0.7 s)
    GRHydro_InitData:
      magtov_poloidal (1.2 s)
      magtov_poloidal_poloidal_P_p_2 (1.2 s)
    GiRaFFE:
      GiRaFFE_tests_AlfvenWave (1.0 s)
      GiRaFFE_tests_AlignedRotator (6.7 s)
      GiRaFFE_tests_DegenAlfvenWave (1.0 s)
      GiRaFFE_tests_ExactWald (3.4 s)
      GiRaFFE_tests_FFEBreak (0.7 s)
      GiRaFFE_tests_FastWave (0.9 s)
      GiRaFFE_tests_MagnetoWald (3.2 s)
      GiRaFFE_tests_SplitMonopole (3.3 s)
      GiRaFFE_tests_ThreeWave (1.4 s)
    HighOrderWaveTest:
      test_restrict_sync (0.7 s)
    Hydro_Analysis:
      tov_mass_test (0.9 s)
      two_tov (0.7 s)
    Hydro_InitExcision:
      diag_flip_pugh_eno (0.7 s)
      diag_pugh_eno (0.7 s)
      sphere_pugh_ppm (0.7 s)
      x_flip_pugh_eno (0.6 s)
      x_pugh_eno (0.6 s)
    Hydro_RNSID:
      rnsA2 (10.1 s)
    IDAnalyticBH:
      kerr (0.6 s)
      test_bl (0.5 s)
      test_misner (0.5 s)
    IDAxiBrillBH:
      test_axibrill (0.5 s)
      test_axibrill_nostagger (0.6 s)
    IDAxiOddBrillBH:
      E2xeon_test_axioddbh (0.6 s)
      test_axioddbh (0.6 s)
    IDConstraintViolate:
      ConstraintViolate (0.6 s)
    IDLinearWaves:
      test_pw_ADM_dir-x (0.5 s)
      test_pw_ADM_dir-z (0.5 s)
    IDScalarWaveElliptic:
      test_waveell (0.6 s)
    IOHDF5:
      test_recover (0.5 s)
    IllinoisGRMHD:
      Balsara1 (0.8 s)
      Balsara2 (0.8 s)
      Balsara3 (0.9 s)
      Balsara5 (0.8 s)
      magnetizedTOV (4.9 s)
    InterpToArray:
      wavetoy (0.5 s)
      wavetoy2 (0.6 s)
    LeanBSSNMoL:
      LeanBSSN_BY (20.8 s)
      LeanBSSN_BY-spin (26.9 s)
      LeanBSSN_BY-spin-no-gauge (26.9 s)
      LeanBSSN_BY-spin-no-lapse (27.1 s)
      LeanBSSN_BY-spin-no-shift (27.1 s)
      LeanBSSN_schw (2.2 s)
    LlamaWaveToy:
      llamawavetoy_6patch (2.1 s)
      llamawavetoy_7patch (4.4 s)
    LoopControl:
      test-minkowski-carpet-1lev (1.1 s)
    ML_BSSN_Test:
      ML_ADMConstraints (0.7 s)
      ML_BSSN_EE_sgw3d (1.0 s)
      ML_BSSN_EE_sgw3d_rhs (0.9 s)
      ML_BSSN_MP_O8_bh (4.6 s)
      ML_BSSN_NewRad (0.8 s)
      ML_BSSN_O8_sgw3d (1.1 s)
      ML_BSSN_sgw3d (1.0 s)
      ML_BSSN_sgw3d_harmonic (1.1 s)
      ML_BSSN_sgw3d_harmonic_phi (1.0 s)
      ML_BSSN_sgw3d_rhs (0.7 s)
    ML_CCZ4_Test:
      ML_CCZ4_sgw3d (1.0 s)
      ML_CCZ4_sgw3d_rhs (0.7 s)
    ML_WaveToy_Test:
      gaussian-RK4 (0.8 s)
      gaussian-RK45 (0.9 s)
      gaussian-RK45-adaptive (0.9 s)
    MemSpeed:
      memspeed (107.7 s)
    Multipole:
      test_22 (1.9 s)
      test_31 (2.0 s)
      test_44 (2.0 s)
      test_driscollhealy (2.2 s)
      test_midpoint (1.9 s)
      test_rads (1.9 s)
      test_simpson (2.2 s)
      test_trapezoidal (2.2 s)
      test_vars (0.7 s)
    NPScalars:
      teukolsky (0.8 s)
    NPScalars_Proca:
      LeanBSSN_Ei_mu0.4_c0.05 (0.7 s)
    NaNChecker:
      nancount (0.5 s)
    Outflow:
      moving_tov (0.7 s)
    PeriodicCarpet:
      ml-gw1d-small (1.1 s)
      ml-gw1d-small-amr (1.3 s)
      testperiodicinterp (0.7 s)
    ProcaEvolve:
      LeanBSSN_Ei_mu0.4_c0.05 (0.9 s)
      ML_BSSN_Ei_mu0.4_c0.05 (0.9 s)
    Proca_simpleID:
      LeanBSSN_Ei_mu0.4_c0.05 (0.7 s)
    QuasiLocalMeasures:
      qlm-bl (3.8 s)
      qlm-ks (3.0 s)
      qlm-ks-EE (3.2 s)
      qlm-ks-boosted (4.9 s)
      qlm-ks-shifted (4.0 s)
      qlm-ks-tilted (3.0 s)
      qlm-minkowski (2.4 s)
    ReadInterpolate:
      admhydro (0.9 s)
      synthetic (0.9 s)
    RotatingDBHIVP:
      E2xeon_test_rdbh (0.7 s)
      test_rdbh (0.7 s)
    RotatingSymmetry180:
      Kerr-EE (0.8 s)
      Kerr-rotating-180-EE (0.8 s)
      Kerr-rotating-180-staggered-EE (0.8 s)
      Kerr-staggered-EE (0.8 s)
      KerrSchild-rotating-180-EE (0.9 s)
    RotatingSymmetry90:
      Kerr-rotating-90-EE (0.7 s)
      Kerr-rotating-90-staggered-EE (0.7 s)
      KerrSchild-rotating-90-EE (0.9 s)
    SIMDWaveToyX:
      standing (0.5 s)
    SampleBoundary:
      wavetoyc (0.5 s)
    ScalarEvolve:
      SF_boundstateID_test (1.5 s)
      SF_constantID_test (0.8 s)
      SF_gaussmultipoleID_test (0.8 s)
    Seed_Magnetic_Fields:
      large_Afield_BNS (11.9 s)
      magnetized_explosionTOV (11.9 s)
    SlabTest:
      slabtest (0.6 s)
    SpacetimeWaveToyX:
      standing (0.5 s)
    SphericalHarmonicRecon:
      regression_test (2.2 s)
    SphericalHarmonicReconGen:
      SpEC-dat-test (1.8 s)
      SpEC-h5-test (1.7 s)
    StaggeredWaveToyX:
      standing (0.6 s)
    TOVSolver:
      test_one_boost_max (0.7 s)
      test_one_static_max (0.7 s)
      test_tov_carpet (0.8 s)
      test_two_av (0.8 s)
      test_two_max (0.8 s)
    TOVola:
      Piecewise_test (1.0 s)
      Simple_test (1.1 s)
    TerminationTrigger:
      file (0.5 s)
      signal (0.5 s)
      walltime (0.5 s)
    TestArrayGroup:
      testarraygroup (0.5 s)
    TestArrays:
      arrays (0.5 s)
      arrays0 (0.5 s)
    TestComplex:
      TestComplex (0.5 s)
      TestComplexPow (0.5 s)
    TestDerivs:
      derivs-2nd-order (0.5 s)
      derivs-4th-order (0.6 s)
      derivs-6th-order (0.6 s)
    TestFpointerNULL:
      test_fpointer_null (0.5 s)
    TestGlobalReduce:
      TestAvg (0.5 s)
      TestAvg_dest0 (0.5 s)
      TestMax (0.5 s)
      TestMax_dest0 (0.5 s)
      TestMin (0.5 s)
      TestMin_dest0 (0.5 s)
      TestScalar (0.5 s)
      TestSum (0.5 s)
      TestSum_dest0 (0.5 s)
      TestWeightAvg (0.5 s)
      TestWeightMax (0.5 s)
      TestWeightMin (0.5 s)
      TestWeightSum (0.5 s)
      gaussianMax (0.5 s)
      gaussianMax_dest0 (0.5 s)
      gaussianSum (0.5 s)
      gaussianSum_dest0 (0.5 s)
    TestInterpolate:
      cell_interpolate (0.5 s)
      vertex_interpolate (0.5 s)
    TestLocalInterp2:
      test_local_interp_2 (0.5 s)
    TestLocalReduce:
      TestAvg (0.5 s)
      TestMax (0.5 s)
      TestSum (0.5 s)
    TestLoop:
      testloop (0.5 s)
    TestLoopControl:
      testloop (0.6 s)
    TestMoL:
      ICN (0.5 s)
      ICN-avg (0.5 s)
      RK2 (0.5 s)
      RK2-MR-2-1 (0.5 s)
      RK2-central (0.5 s)
      RK3 (0.5 s)
      RK4 (0.5 s)
      RK4-MR-2-1 (0.5 s)
      RK4-RK2 (0.5 s)
      RK45 (0.5 s)
      RK45CK (0.5 s)
      RK65 (0.5 s)
      RK87 (0.5 s)
    TestNorms:
      norms (0.5 s)
    TestODESolvers:
      test-constant (0.5 s)
      test-dp87 (0.5 s)
      test-euler (0.5 s)
      test-rk2 (0.5 s)
      test-rk3 (0.5 s)
      test-rk4 (0.5 s)
      test-rkf78 (0.5 s)
      test-ssprk3 (0.5 s)
    TestODESolvers2:
      test-constant (0.5 s)
      test-dp87 (0.5 s)
      test-euler (0.5 s)
      test-rk2 (0.5 s)
      test-rk3 (0.5 s)
      test-rk4 (0.5 s)
      test-rkf78 (0.5 s)
      test-ssprk3 (0.5 s)
    TestOutput:
      checkpoint-openpmd (0.6 s)
      output-arrays (0.5 s)
      output-every0 (0.5 s)
      output-every1 (0.7 s)
      output-every3 (0.7 s)
      output-openpmd (0.5 s)
      output-tsv-every0 (0.5 s)
      output-tsv-every1 (0.5 s)
      output-tsv-every3 (0.6 s)
      recover-openpmd (0.6 s)
    TestPar:
      expressions (0.5 s)
    TestProlongate:
      test_cc_co_o1 (1.3 s)
      test_cc_nc_o1 (0.8 s)
      test_cc_nc_o3 (1.1 s)
      test_ddf_o1 (0.8 s)
      test_ddf_o3 (1.3 s)
      test_ddf_o5 (1.7 s)
      test_ddf_o7 (2.2 s)
      test_eno_o3 (1.4 s)
      test_eno_per_group_o3 (1.4 s)
      test_hermite_o1 (0.8 s)
      test_hermite_o3 (1.2 s)
      test_hermite_o5 (1.7 s)
      test_natural_o1 (0.9 s)
      test_natural_o3 (1.4 s)
      test_natural_o5 (1.8 s)
      test_natural_o7 (2.4 s)
      test_poly_cons3lfb_o1 (0.8 s)
      test_poly_cons3lfb_o3 (1.4 s)
      test_poly_cons3lfb_o5 (1.6 s)
    TestReadWrite:
      ReadWriteCarpet (0.6 s)
    Trigger:
      trigger (1.2 s)
    TwoPunctures:
      bhns_eval (4.1 s)
      bhns_interp (10.5 s)
      twopunctures (2.5 s)
      twopunctures_carpet (2.2 s)
    TwoPunctures_BBHSF:
      SF_twopuncturesID_test (0.9 s)
    TwoPunctures_KerrProca:
      twopunctures_kerrproca_c11 (17.0 s)
    Vectors:
      vectors (0.7 s)
    VolumeIntegrals_GRMHD:
      magnetized_explosionTOV (11.9 s)
    VolumeIntegrals_vacuum:
      magnetized_explosionTOV (12.1 s)
    WaveBinarySource:
      test_binary_1 (0.5 s)
    WaveMoL:
      gaussian (0.6 s)
    WaveToy1DF77:
      wavetoy1df77 (0.5 s)
    WaveToy2DF77:
      test_WaveToy2D (0.5 s)
    WaveToyC:
      test_rad (0.5 s)
      wave_output (0.5 s)
    WaveToyCXX:
      test_rad (0.5 s)
    WaveToyExtra:
      test_custom (0.5 s)
    WaveToyF77:
      test_rad (0.5 s)
      test_rob (0.5 s)
    WaveToyF90:
      test_rad (0.5 s)
      test_wavef90_flat (0.5 s)
      test_wavef90_zero (0.5 s)
    WaveToyFreeF90:
      test_rad (0.5 s)
    WaveToyX:
      presync (0.5 s)
      radiative (0.5 s)
      reflecting (0.5 s)
      standing (0.5 s)
    WeylScal4:
      teukolsky (0.9 s)
      teukolskyID (0.8 s)
      teukolskyParity (0.8 s)
    particle_tracerET:
      magnetized_explosionTOV (12.1 s)
    smallbPoynET:
      magnetized_explosionTOV (11.9 s)

  Thorns with no valid testsuite parameter files:

    ADIOS2
    ADMAnalysis
    ADMBase
    ADMBaseX
    ADMCoupling
    ADMDerivatives
    ADMMacros
    AEILocalInterp
    AMReX
    Arith
    BLAS
    Boundary
    CACTUS
    CT_Analytic
    CalcK
    CarpetIOBasic
    CarpetInterp2
    CarpetLib
    CarpetMask
    CarpetRegrid
    CarpetRegridTest
    CarpetSlab
    CarpetTracker
    CarpetX
    CarpetXRegrid
    CartGrid3D
    Constants
    Convert_to_HydroBase
    CoordBase
    CoordGauge
    CoordinatesSymmetry
    CoordinatesX
    CycleClock
    DemoInterp
    Derivs
    EHFinder
    EOS_Base
    EOS_Hybrid
    EOS_IdealFluid
    EOS_Polytrope
    EllBase
    EllSOR
    ErrorEstimator
    FFTW3
    FleshInfo
    Formaline
    Fortran
    GRHayLID
    GRHayLIDX
    GRHayLib
    GSL
    GaugeWave
    GenericFD
    GiRaFFE_to_HydroBase
    GiRaFFEfood
    GlobalDerivative
    HDF5
    HTTPD
    HTTPDExtra
    HelloWorld
    HydroBase
    HydroBaseX
    IDBrillData
    IDFileADM
    IDScalarWave
    IDScalarWaveC
    IDScalarWaveCXX
    IDWaveMoL
    ID_converter_GiRaFFE
    ID_converter_ILGRMHD
    IOASCII
    IOBasic
    IOHDF5Util
    IOJpeg
    IOUtil
    InitBase
    Interpolate2
    KerrSchild
    LAPACK
    LORENE
    LocalInterp
    LocalInterp2
    LocalReduce
    Loop
    ML_ADMConstraints
    ML_ADMQuantities
    ML_BSSN
    ML_BSSN_Helper
    ML_CCZ4
    ML_CCZ4_Helper
    ML_WaveToy
    MPI
    Meudon_Bin_BH
    Meudon_Bin_NS
    Meudon_Mag_NS
    Minkowski
    MoL
    ModifiedSchwarzschildBL
    NRPyEllipticET
    NSIMD
    NaNCatcher
    NewRad
    NewRadX
    Nice
    NoExcision
    NoMPI
    Noise
    Norms
    NullConstr
    NullDecomp
    NullEvolve
    NullExact
    NullGrid
    NullInterp
    NullNews
    NullPsiInt
    NullSHRExtract
    NullVars
    ODESolvers
    OpenSSL
    PUGH
    PUGHInterp
    PUGHReduce
    PUGHSlab
    Periodic
    Poisson
    ProcaBase
    PunctureTracker
    ReductionTest
    ReductionTest2
    ReductionTest3
    ReflectionSymmetry
    RegridSyncTest
    SGRID
    SampleIO
    ScalarBase
    ScalarInit
    SetMask_SphericalSurface
    ShiftedGaugeWave
    ShiftedKerrSchild
    Silo
    Slab
    Socket
    SpaceMask
    SphericalHarmonicDecomp
    SphericalSurface
    StaticConformal
    SummationByParts
    SymBase
    SystemStatistics
    SystemTopology
    TATelliptic
    TGRtensor
    TensorTypes
    TestBoundaries
    TestBoxInBox
    TestCarpetGridInfo
    TestCoordinates
    TestFortranCrayPointers
    TestFortranDependencies1
    TestFortranDependencies2
    TestFreeF90
    TestInclude1
    TestInclude2
    TestMath
    TestReduce
    TestSchedule
    TestStrings
    TestSymmetries
    TestTable
    TestTimers
    TestTypes
    Time
    TimerInfo
    TimerReport
    Timers
    TmunuBase
    TmunuBaseX
    Vaidya2
    WatchDog
    WaveExtractL
    hwloc
    libjpeg
    openPMD
    pthreads
    yaml_cpp
    zlib

  Thorns with unrecognized test output files:
    AHFinderDirect
       checkpointML-EE:  checkpoint.chkpt.it_1.h5 phi.d.ast
    CarpetIOHDF5
       newsep:  grid.coordinates..h5 grid.coordinates.d.h5 grid.coordinates.file_0.h5 grid.coordinates.file_1.h5 grid.coordinates.x.h5 grid.coordinates.xy.h5 grid.coordinates.xyz.file_0.h5 grid.coordinates.xyz.file_1.h5 grid.coordinates.xz.h5 grid.coordinates.y.h5 grid.coordinates.yz.h5 grid.coordinates.z.h5 interptoarray.arrays1d..h5 interptoarray.arrays1d.x.h5 interptoarray.arrays1d.y.h5 interptoarray.arrays2d..h5 interptoarray.arrays2d.x.h5 interptoarray.arrays2d.xy.h5 interptoarray.arrays2d.y.h5 interptoarray.arrays2d.z.h5 interptoarray.arrays3d..h5 interptoarray.arrays3d.d.h5 interptoarray.arrays3d.x.h5 interptoarray.arrays3d.xy.h5 interptoarray.arrays3d.xyz.file_0.h5 interptoarray.arrays3d.xyz.file_1.h5 interptoarray.arrays3d.xz.h5 interptoarray.arrays3d.y.h5 interptoarray.arrays3d.yz.h5 interptoarray.arrays3d.z.h5 interptoarray.scalars..h5
    CarpetIOHDF5
       nobuffers:  x.xy.h5 x.xz.h5
    CarpetReduce
       periodic_weight:  grid_coordinates.txt grid_structure.txt
    DNSdata
       DNSdata_test:  .gitkeep
    Dissipation
       test_ah:  h.ah1.dx
    Dissipation
       test_ob:  h.ah1.dx
    Extract
       qc0-mclachlan:  TwoPunctures.bbh
    GRHayLHDX
       Balsara0:  carpetx-metadata.it00000000.yaml carpetx-metadata.it00000010.yaml parameters.it00000000.yaml parameters.it00000010.yaml
    LeanBSSNMoL
       LeanBSSN_BY:  TwoPunctures.bbh
    LeanBSSNMoL
       LeanBSSN_BY-spin:  TwoPunctures.bbh
    LeanBSSNMoL
       LeanBSSN_BY-spin-no-gauge:  TwoPunctures.bbh
    LeanBSSNMoL
       LeanBSSN_BY-spin-no-lapse:  TwoPunctures.bbh
    LeanBSSNMoL
       LeanBSSN_BY-spin-no-shift:  TwoPunctures.bbh
    LeanBSSNMoL
       LeanBSSN_schw:  TwoPunctures.bbh
    TerminationTrigger
       file:  terminate
    TestOutput
       output-every0:  .empty-directory
    TestOutput
       output-openpmd:  output-openpmd.it00000000.bp5/data.0 md.0 output-openpmd.it00000000.bp5/md.idx mmd.0 profiling.json
    TestOutput
       output-tsv-every0:  .empty-directory
    TestOutput
       recover-openpmd:  recover-openpmd.it00000001.bp5/data.0 md.0 recover-openpmd.it00000001.bp5/md.idx mmd.0 profiling.json recover-openpmd.it00000002.bp5/data.0 md.0 recover-openpmd.it00000002.bp5/md.idx mmd.0 profiling.json recover-openpmd.openpmd.visit
    TwoPunctures
       twopunctures_carpet:  TwoPunctures.bbh
    TwoPunctures_BBHSF
       SF_twopuncturesID_test:  TwoPunctures.bbh
    TwoPunctures_KerrProca
       twopunctures_kerrproca_c11:  TwoPunctures.bbh
------------------------------------------------------------------------

  Run details for configuration sim

      ADMMass: tov
         Success: 6 files identical
      ADMMass: tov_carpet
         Success: 6 files identical
      AHFinder: test_AHF_1
         Success: 24 files identical
      AHFinder: test_AHF_2
         Success: 24 files identical
      AHFinderDirect: Kerr
         Success: 4 files compared, 2 differ in the last digits
      AHFinderDirect: Kerr-Cartoon
         Success: 4 files compared, 2 differ in the last digits
      AHFinderDirect: Kerr-Cartoon-EE
         Success: 4 files compared, 2 differ in the last digits
      AHFinderDirect: Kerr-EE
         Success: 4 files compared, 2 differ in the last digits
      AHFinderDirect: Kerr-definition-expansion
         Success: 4 files compared, 2 differ in the last digits
      AHFinderDirect: Kerr-definition-expansion-EE
         Success: 4 files compared, 1 differ in the last digits
      AHFinderDirect: Kerr-definition-expansion-product
         Success: 4 files compared, 2 differ in the last digits
      AHFinderDirect: Kerr-definition-expansion-product-EE
         Success: 4 files compared, 1 differ in the last digits
      AHFinderDirect: Kerr-definition-inner-expansion
         Success: 4 files compared, 2 differ in the last digits
      AHFinderDirect: Kerr-definition-inner-expansion-EE
         Success: 4 files compared, 2 differ in the last digits
      AHFinderDirect: Kerr-definition-mean-curvature
         Success: 4 files compared, 2 differ in the last digits
      AHFinderDirect: Kerr-definition-mean-curvature-EE
         Success: 4 files compared, 1 differ in the last digits
      AHFinderDirect: Kerr-modification-radius
         Success: 4 files compared, 2 differ in the last digits
      AHFinderDirect: Kerr-modification-radius-EE
         Success: 4 files compared, 1 differ in the last digits
      AHFinderDirect: Kerr-rotating-180
         Success: 4 files compared, 2 differ in the last digits
      AHFinderDirect: Kerr-rotating-180-EE
         Success: 4 files compared, 2 differ in the last digits
      AHFinderDirect: Kerr-rotating-90
         Success: 4 files compared, 2 differ in the last digits
      AHFinderDirect: Kerr-rotating-90-EE
         Success: 4 files compared, 2 differ in the last digits
      AHFinderDirect: Kerr-selection-areal-radius
         Success: 4 files compared, 2 differ in the last digits
      AHFinderDirect: Kerr-selection-areal-radius-EE
         Success: 4 files compared, 2 differ in the last digits
      AHFinderDirect: Kerr-selection-areal-radius-definition-expansion-product
         Success: 4 files compared, 2 differ in the last digits
      AHFinderDirect: Kerr-selection-areal-radius-definition-expansion-product-EE
         Success: 4 files compared, 2 differ in the last digits
      AHFinderDirect: Kerr-selection-mean-coordinate-radius
         Success: 4 files compared, 2 differ in the last digits
      AHFinderDirect: Kerr-selection-mean-coordinate-radius-EE
         Success: 4 files compared, 1 differ in the last digits
      AHFinderDirect: checkpointML-EE
         Success: 14 files compared, 7 differ in the last digits
      AHFinderDirect: misner1.2-025
         Success: 110 files compared, 9 differ in the last digits
      AHFinderDirect: recoverML-EE
         Success: 10 files compared, 5 differ in the last digits
      Baikal: Baikal_PreSync
         Success: 2 files identical
      Baikal: magnetizedTOV-Baikal
         Success: 2 files identical
      BaikalVacuum: BaikalVacuum_EE_O8_sgw3d
         Success: 8 files compared, 4 differ in the last digits
      BaikalVacuum: BaikalVacuum_PreSync
         Success: 8 files compared, 4 differ in the last digits
      BoxInBox: levels1
         Success: 44 files identical
      BoxInBox: levels2
         Success: 44 files identical
      BoxInBox: levels20
         Success: 44 files compared, 4 differ in the last digits
      BoxInBox: levels3
         Success: 44 files identical
      BoxInBox: regions2
         Success: 44 files identical
      BoxInBox: regions3
         Success: 44 files identical
      BoxInBox: unigrid
         Success: 44 files identical
      CT_MultiLevel: boostedpuncture
         Success: 86 files compared, 30 differ in the last digits
      CT_MultiLevel: constraints_spherical
         Success: 88 files compared, 36 differ in the last digits
      CT_MultiLevel: poisson
         Success: 66 files compared, 32 differ in the last digits
      Carpet: 64k2
         Success: 0 files identical
      Carpet: kasner
         Success: 8 files identical
      Carpet: kasner_amr
         Success: 8 files compared, 2 differ in the last digits
      Carpet: no-overlap
         Success: 30 files identical
      Carpet: overlap
         Success: 30 files identical
      Carpet: presync
         Success: 4 files identical
      Carpet: test_restrict_sync
         Success: 2 files identical
      CarpetEvolutionMask: CarpetEvolutionMask_test
         Success: 140 files compared, 24 differ in the last digits
      CarpetEvolutionMask: CarpetEvolutionMask_test_off
         Success: 140 files compared, 24 differ in the last digits
      CarpetEvolutionMask: buffer_mask
         Success: 6 files identical
      CarpetIOASCII: compact
         Success: 54 files identical
      CarpetIOASCII: coords
         Success: 54 files identical
      CarpetIOASCII: grid-coords
         Success: 54 files identical
      CarpetIOASCII: newsep
         Success: 54 files identical
      CarpetIOHDF5: CarpetWaveToyNewRecover_test_1proc
         Success: 24 files compared, 7 differ in the last digits
      CarpetIOHDF5: CarpetWaveToyRecover_test_1proc
         Success: 24 files compared, 7 differ in the last digits
      CarpetIOHDF5: CarpetWaveToyRecover_test_2proc
         Success: 24 files compared, 7 differ in the last digits
      CarpetIOHDF5: newsep
         Success: 0 files identical
      CarpetIOHDF5: nobuffers
         Success: 0 files identical
      CarpetIOHDF5: presyncRecover
         Success: 24 files compared, 4 differ in the last digits
      CarpetIOScalar: coords
         Success: 10 files compared, 1 differ in the last digits
      CarpetIOScalar: coords2
         Success: 18 files compared, 6 differ in the last digits
      CarpetIOScalar: coords3
         Success: 72 files compared, 12 differ in the last digits
      CarpetIOScalar: coords4
         Success: 2 files compared, 1 differ in the last digits
      CarpetIOScalar: newsep
         Success: 2 files compared, 1 differ in the last digits
      CarpetIntegrateTest: carpetintegrate
         Success: 64 files compared, 6 differ in the last digits
      CarpetIntegrateTest: carpetintegrate-linear
         Success: 64 files compared, 14 differ in the last digits
      CarpetInterp: waveinterp-1p
         Success: 132 files compared, 13 differ in the last digits
      CarpetInterp: waveinterp-2p
         Success: 132 files compared, 15 differ in the last digits
      CarpetProlongateTest: test_cc_horest_o3
         Success: 18 files compared, 8 differ in the last digits
      CarpetProlongateTest: test_cc_horest_o5
         Success: 18 files compared, 6 differ in the last digits
      CarpetProlongateTest: test_cc_o0
         Success: 18 files identical
      CarpetProlongateTest: test_cc_o1
         Success: 18 files compared, 9 differ in the last digits
      CarpetProlongateTest: test_cc_o2
         Success: 18 files compared, 9 differ in the last digits
      CarpetProlongateTest: test_cc_o3
         Success: 18 files compared, 9 differ in the last digits
      CarpetProlongateTest: test_cc_o4
         Success: 18 files compared, 8 differ in the last digits
      CarpetProlongateTest: test_cc_o5
         Success: 18 files compared, 6 differ in the last digits
      CarpetProlongateTest: test_cc_rest_o0
         Success: 18 files identical
      CarpetProlongateTest: test_cc_rest_o1
         Success: 18 files compared, 9 differ in the last digits
      CarpetProlongateTest: test_cc_rest_o2
         Success: 18 files compared, 9 differ in the last digits
      CarpetProlongateTest: test_cc_rest_o3
         Success: 18 files compared, 8 differ in the last digits
      CarpetProlongateTest: test_cc_rest_o4
         Success: 18 files compared, 8 differ in the last digits
      CarpetProlongateTest: test_cc_rest_o5
         Success: 18 files compared, 6 differ in the last digits
      CarpetProlongateTest: test_cc_tvd
         Success: 18 files compared, 8 differ in the last digits
      CarpetProlongateTest: test_cc_tvd_hi
         Success: 18 files compared, 8 differ in the last digits
      CarpetProlongateTest: test_cc_tvd_x
         Success: 18 files compared, 2 differ in the last digits
      CarpetProlongateTest: test_cc_tvd_y
         Success: 18 files identical
      CarpetProlongateTest: test_cc_tvd_z
         Success: 18 files identical
      CarpetProlongateTest: test_interp
         Success: 20 files compared, 8 differ in the last digits
      CarpetProlongateTest: test_o1
         Success: 18 files compared, 3 differ in the last digits
      CarpetProlongateTest: test_o11
         Success: 18 files compared, 8 differ in the last digits
      CarpetProlongateTest: test_o3
         Success: 18 files compared, 7 differ in the last digits
      CarpetProlongateTest: test_o5
         Success: 18 files compared, 8 differ in the last digits
      CarpetProlongateTest: test_o7
         Success: 18 files compared, 9 differ in the last digits
      CarpetProlongateTest: test_o9
         Success: 18 files compared, 9 differ in the last digits
      CarpetReduce: nonstaggered
         Success: 10 files identical
      CarpetReduce: nonstaggered_excl
         Success: 10 files identical
      CarpetReduce: periodic_weight
         Success: 18 files identical
      CarpetReduce: staggered
         Success: 10 files identical
      CarpetRegrid2: regrid2_2D
         Success: 6 files identical
      CarpetRegrid2: regrid2_2cen
         Success: 6 files identical
      CarpetRegrid2: regrid2_2cen_minfrac
         Success: 6 files identical
      CarpetRegrid2: regrid2_granularity
         Success: 8 files identical
      Cartoon2D: carpet
         Success: 6 files identical
      Cartoon2D: schw-0050
         Success: 528 files compared, 5 differ in the last digits
      Cartoon2D: test_cartoon_2
         Success: 224 files compared, 9 differ in the last digits
      Cartoon2D: test_cartoon_3
         Success: 224 files compared, 13 differ in the last digits
      Coordinates: test7patch
         Success: 168 files compared, 12 differ in the last digits
      DNSdata: DNSdata_test
         Success: 14 files compared, 5 differ in the last digits
      Dissipation: test_ah
         Success: 392 files compared, 159 differ in the last digits
      Dissipation: test_ob
         Success: 392 files compared, 158 differ in the last digits
      DistortedBHIVP: E2xeon_test_dbh
         Success: 192 files compared, 40 differ in the last digits
      DistortedBHIVP: test_dbh
         Success: 256 files compared, 1 differ in the last digits
      EOS_Omni: eos_omni
         Success: 2 files compared, 1 differ in the last digits
      EinsteinExact_Test: GaugeWave
         Success: 12 files compared, 4 differ in the last digits
      EinsteinExact_Test: KS-tilted-EE
         Success: 470 files compared, 39 differ in the last digits
      EinsteinExact_Test: KerrSchild
         Success: 12 files compared, 4 differ in the last digits
      EinsteinExact_Test: Minkowski
         Success: 12 files identical
      EinsteinExact_Test: ModifiedSchwarzschildBL
         Success: 12 files compared, 1 differ in the last digits
      EinsteinExact_Test: ShiftedGaugeWave
         Success: 12 files compared, 6 differ in the last digits
      EinsteinExact_Test: Vaidya2
         Success: 12 files compared, 6 differ in the last digits
      Exact: Schwarzschild_EF
         Success: 224 files compared, 16 differ in the last digits
      Exact: bowl-init
         Success: 48 files compared, 1 differ in the last digits
      Exact: de_Sitter
         Success: 80 files identical
      Extract: qc0-mclachlan
         Success: 304 files compared, 148 differ in the last digits
      FLRWSolver: FLRW_singlemode_test
         Success: 136 files compared, 10 differ in the last digits
      FishboneMoncriefID: FishboneMoncrief_IllinoisGRMHD-LLR
         Success: 32 files compared, 7 differ in the last digits
      FluxWaveToyX: radiative
         Success: 102 files compared, 26 differ in the last digits
      FluxWaveToyX: reflecting
         Success: 102 files compared, 26 differ in the last digits
      FluxWaveToyX: standing
         Success: 102 files compared, 26 differ in the last digits
      GRHayLHD: Balsara0
         Success: 10 files compared, 3 differ in the last digits
      GRHayLHD: TOV
         Success: 12 files compared, 6 differ in the last digits
      GRHayLHDX: Balsara0
         Failure: Cactus exited with error code 1.
      GRHydro: GRHydro_test_shock
         Success: 96 files compared, 15 differ in the last digits
      GRHydro: GRHydro_test_shock_hllc
         Success: 96 files compared, 12 differ in the last digits
      GRHydro: GRHydro_test_shock_mp5
         Success: 96 files compared, 34 differ in the last digits
      GRHydro: GRHydro_test_shock_ppm
         Success: 96 files compared, 21 differ in the last digits
      GRHydro: GRHydro_test_shock_weno
         Success: 96 files compared, 10 differ in the last digits
      GRHydro: GRHydro_test_tov_ppm_ML
         Success: 360 files compared, 48 differ in the last digits
      GRHydro: GRHydro_test_tov_ppm_ML_disable_internal_excision
         Success: 360 files compared, 48 differ in the last digits
      GRHydro: GRHydro_test_tov_ppm_no_trp_ML
         Success: 360 files compared, 40 differ in the last digits
      GRHydro: balsara1_1d
         Success: 14 files compared, 3 differ in the last digits
      GRHydro: balsara1_1d_dc
         Success: 16 files compared, 1 differ in the last digits
      GRHydro: balsara1_2d
         Success: 14 files compared, 7 differ in the last digits
      GRHydro: balsara1_2d_dc
         Success: 16 files compared, 8 differ in the last digits
      GRHydro: balsara2_1d
         Success: 14 files compared, 3 differ in the last digits
      GRHydro: balsara2_2d
         Success: 28 files compared, 11 differ in the last digits
      GRHydro: balsara3_1d
         Success: 14 files compared, 5 differ in the last digits
      GRHydro: balsara3_2d
         Success: 14 files compared, 4 differ in the last digits
      GRHydro: balsara4_1d
         Success: 14 files compared, 6 differ in the last digits
      GRHydro: balsara4_2d
         Success: 14 files compared, 7 differ in the last digits
      GRHydro: balsara5_1d
         Success: 14 files compared, 2 differ in the last digits
      GRHydro: balsara5_2d
         Success: 14 files compared, 3 differ in the last digits
      GRHydro: cylexp_tvd_mc2_hlle
         Success: 14 files compared, 6 differ in the last digits
      GRHydro: cylexp_tvd_mc2_hlle_dc
         Success: 14 files compared, 3 differ in the last digits
      GRHydro: test_one_hybrid
         Success: 192 files compared, 1 differ in the last digits
      GRHydro: test_tov_carpet_refined_nosync
         Success: 6 files compared, 3 differ in the last digits
      GRHydro: tov_carpetevolutionmask
         Success: 12 files identical
      GRHydro: tov_carpetevolutionmask2
         Success: 12 files identical
      GRHydro: tov_slowsector
         Success: 12 files identical
      GRHydro_InitData: magtov_poloidal
         Success: 104 files compared, 24 differ in the last digits
      GRHydro_InitData: magtov_poloidal_poloidal_P_p_2
         Success: 104 files compared, 12 differ in the last digits
      GiRaFFE: GiRaFFE_tests_AlfvenWave
         Success: 2 files compared, 1 differ in the last digits
      GiRaFFE: GiRaFFE_tests_AlignedRotator
         Success: 4 files compared, 2 differ in the last digits
      GiRaFFE: GiRaFFE_tests_DegenAlfvenWave
         Success: 2 files compared, 1 differ in the last digits
      GiRaFFE: GiRaFFE_tests_ExactWald
         Success: 4 files compared, 1 differ in the last digits
      GiRaFFE: GiRaFFE_tests_FFEBreak
         Success: 2 files compared, 1 differ in the last digits
      GiRaFFE: GiRaFFE_tests_FastWave
         Success: 2 files compared, 1 differ in the last digits
      GiRaFFE: GiRaFFE_tests_MagnetoWald
         Success: 4 files compared, 2 differ in the last digits
      GiRaFFE: GiRaFFE_tests_SplitMonopole
         Success: 4 files compared, 2 differ in the last digits
      GiRaFFE: GiRaFFE_tests_ThreeWave
         Success: 2 files compared, 1 differ in the last digits
      HighOrderWaveTest: test_restrict_sync
         Success: 2 files compared, 1 differ in the last digits
      Hydro_Analysis: tov_mass_test
         Success: 2 files identical
      Hydro_Analysis: two_tov
         Success: 8 files identical
      Hydro_InitExcision: diag_flip_pugh_eno
         Success: 148 files compared, 53 differ in the last digits
      Hydro_InitExcision: diag_pugh_eno
         Success: 148 files compared, 55 differ in the last digits
      Hydro_InitExcision: sphere_pugh_ppm
         Success: 154 files compared, 16 differ in the last digits
      Hydro_InitExcision: x_flip_pugh_eno
         Success: 148 files compared, 23 differ in the last digits
      Hydro_InitExcision: x_pugh_eno
         Success: 148 files compared, 27 differ in the last digits
      Hydro_RNSID: rnsA2
         Success: 64 files compared, 23 differ in the last digits
      IDAnalyticBH: kerr
         Success: 70 files compared, 1 differ in the last digits
      IDAnalyticBH: test_bl
         Success: 8 files identical
      IDAnalyticBH: test_misner
         Success: 16 files identical
      IDAxiBrillBH: test_axibrill
         Success: 184 files compared, 10 differ in the last digits
      IDAxiBrillBH: test_axibrill_nostagger
         Success: 184 files compared, 3 differ in the last digits
      IDAxiOddBrillBH: E2xeon_test_axioddbh
         Success: 168 files compared, 54 differ in the last digits
      IDAxiOddBrillBH: test_axioddbh
         Success: 208 files compared, 38 differ in the last digits
      IDConstraintViolate: ConstraintViolate
         Success: 48 files identical
      IDLinearWaves: test_pw_ADM_dir-x
         Success: 120 files identical
      IDLinearWaves: test_pw_ADM_dir-z
         Success: 128 files identical
      IDScalarWaveElliptic: test_waveell
         Success: 16 files compared, 4 differ in the last digits
      IOHDF5: test_recover
         Success: 10 files compared, 1 differ in the last digits
      IllinoisGRMHD: Balsara1
         Success: 16 files identical
      IllinoisGRMHD: Balsara2
         Success: 16 files identical
      IllinoisGRMHD: Balsara3
         Success: 16 files identical
      IllinoisGRMHD: Balsara5
         Success: 16 files compared, 8 differ in the last digits
      IllinoisGRMHD: magnetizedTOV
         Success: 16 files identical
      InterpToArray: wavetoy
         Success: 50 files compared, 1 differ in the last digits
      InterpToArray: wavetoy2
         Success: 34 files identical
      LeanBSSNMoL: LeanBSSN_BY
         Success: 210 files compared, 105 differ in the last digits
      LeanBSSNMoL: LeanBSSN_BY-spin
         Success: 210 files compared, 105 differ in the last digits
      LeanBSSNMoL: LeanBSSN_BY-spin-no-gauge
         Success: 228 files compared, 105 differ in the last digits
      LeanBSSNMoL: LeanBSSN_BY-spin-no-lapse
         Success: 246 files compared, 123 differ in the last digits
      LeanBSSNMoL: LeanBSSN_BY-spin-no-shift
         Success: 234 files compared, 108 differ in the last digits
      LeanBSSNMoL: LeanBSSN_schw
         Success: 210 files compared, 105 differ in the last digits
      LlamaWaveToy: llamawavetoy_6patch
         Success: 36 files compared, 18 differ in the last digits
      LlamaWaveToy: llamawavetoy_7patch
         Success: 42 files compared, 21 differ in the last digits
      LoopControl: test-minkowski-carpet-1lev
         Success: 8 files identical
      ML_BSSN_Test: ML_ADMConstraints
         Success: 36 files compared, 18 differ in the last digits
      ML_BSSN_Test: ML_BSSN_EE_sgw3d
         Success: 64 files compared, 30 differ in the last digits
      ML_BSSN_Test: ML_BSSN_EE_sgw3d_rhs
         Success: 342 files compared, 165 differ in the last digits
      ML_BSSN_Test: ML_BSSN_MP_O8_bh
         Success: 462 files compared, 219 differ in the last digits
      ML_BSSN_Test: ML_BSSN_NewRad
         Success: 104 files compared, 50 differ in the last digits
      ML_BSSN_Test: ML_BSSN_O8_sgw3d
         Success: 64 files compared, 30 differ in the last digits
      ML_BSSN_Test: ML_BSSN_sgw3d
         Success: 64 files compared, 30 differ in the last digits
      ML_BSSN_Test: ML_BSSN_sgw3d_harmonic
         Success: 58 files compared, 27 differ in the last digits
      ML_BSSN_Test: ML_BSSN_sgw3d_harmonic_phi
         Success: 58 files compared, 27 differ in the last digits
      ML_BSSN_Test: ML_BSSN_sgw3d_rhs
         Success: 342 files compared, 165 differ in the last digits
      ML_CCZ4_Test: ML_CCZ4_sgw3d
         Success: 74 files compared, 35 differ in the last digits
      ML_CCZ4_Test: ML_CCZ4_sgw3d_rhs
         Success: 354 files compared, 169 differ in the last digits
      ML_WaveToy_Test: gaussian-RK4
         Success: 34 files compared, 14 differ in the last digits
      ML_WaveToy_Test: gaussian-RK45
         Success: 34 files compared, 14 differ in the last digits
      ML_WaveToy_Test: gaussian-RK45-adaptive
         Success: 34 files compared, 17 differ in the last digits
      MemSpeed: memspeed
         Success: 8 files identical
      Multipole: test_22
         Success: 26 files compared, 12 differ in the last digits
      Multipole: test_31
         Success: 50 files compared, 25 differ in the last digits
      Multipole: test_44
         Success: 50 files compared, 25 differ in the last digits
      Multipole: test_driscollhealy
         Success: 28 files compared, 10 differ in the last digits
      Multipole: test_midpoint
         Success: 36 files compared, 13 differ in the last digits
      Multipole: test_rads
         Success: 78 files compared, 27 differ in the last digits
      Multipole: test_simpson
         Success: 36 files compared, 11 differ in the last digits
      Multipole: test_trapezoidal
         Success: 36 files compared, 11 differ in the last digits
      Multipole: test_vars
         Success: 66 files compared, 32 differ in the last digits
      NPScalars: teukolsky
         Success: 16 files compared, 8 differ in the last digits
      NPScalars_Proca: LeanBSSN_Ei_mu0.4_c0.05
         Success: 36 files compared, 18 differ in the last digits
      NaNChecker: nancount
         Success: 2 files identical
      Outflow: moving_tov
         Success: 16 files compared, 3 differ in the last digits
      PeriodicCarpet: ml-gw1d-small
         Success: 392 files compared, 57 differ in the last digits
      PeriodicCarpet: ml-gw1d-small-amr
         Success: 320 files compared, 49 differ in the last digits
      PeriodicCarpet: testperiodicinterp
         Success: 2 files identical
      ProcaEvolve: LeanBSSN_Ei_mu0.4_c0.05
         Success: 306 files compared, 153 differ in the last digits
      ProcaEvolve: ML_BSSN_Ei_mu0.4_c0.05
         Success: 324 files compared, 156 differ in the last digits
      Proca_simpleID: LeanBSSN_Ei_mu0.4_c0.05
         Success: 54 files compared, 17 differ in the last digits
      QuasiLocalMeasures: qlm-bl
         Success: 338 files compared, 142 differ in the last digits
      QuasiLocalMeasures: qlm-ks
         Success: 338 files compared, 137 differ in the last digits
      QuasiLocalMeasures: qlm-ks-EE
         Success: 338 files compared, 135 differ in the last digits
      QuasiLocalMeasures: qlm-ks-boosted
         Success: 338 files compared, 138 differ in the last digits
      QuasiLocalMeasures: qlm-ks-shifted
         Success: 338 files compared, 141 differ in the last digits
      QuasiLocalMeasures: qlm-ks-tilted
         Success: 338 files compared, 137 differ in the last digits
      QuasiLocalMeasures: qlm-minkowski
         Success: 338 files compared, 84 differ in the last digits
      ReadInterpolate: admhydro
         Success: 24 files identical
      ReadInterpolate: synthetic
         Success: 8 files compared, 1 differ in the last digits
      RotatingDBHIVP: E2xeon_test_rdbh
         Success: 184 files compared, 64 differ in the last digits
      RotatingDBHIVP: test_rdbh
         Success: 256 files compared, 48 differ in the last digits
      RotatingSymmetry180: Kerr-EE
         Success: 408 files compared, 42 differ in the last digits
      RotatingSymmetry180: Kerr-rotating-180-EE
         Success: 408 files compared, 36 differ in the last digits
      RotatingSymmetry180: Kerr-rotating-180-staggered-EE
         Success: 408 files compared, 36 differ in the last digits
      RotatingSymmetry180: Kerr-staggered-EE
         Success: 408 files compared, 41 differ in the last digits
      RotatingSymmetry180: KerrSchild-rotating-180-EE
         Success: 240 files compared, 93 differ in the last digits
      RotatingSymmetry90: Kerr-rotating-90-EE
         Success: 400 files compared, 21 differ in the last digits
      RotatingSymmetry90: Kerr-rotating-90-staggered-EE
         Success: 400 files compared, 33 differ in the last digits
      RotatingSymmetry90: KerrSchild-rotating-90-EE
         Success: 240 files compared, 91 differ in the last digits
      SIMDWaveToyX: standing
         Success: 58 files compared, 16 differ in the last digits
      SampleBoundary: wavetoyc
         Success: 12 files compared, 4 differ in the last digits
      ScalarEvolve: SF_boundstateID_test
         Success: 24 files compared, 12 differ in the last digits
      ScalarEvolve: SF_constantID_test
         Success: 24 files compared, 3 differ in the last digits
      ScalarEvolve: SF_gaussmultipoleID_test
         Success: 24 files compared, 12 differ in the last digits
      Seed_Magnetic_Fields: large_Afield_BNS
         Success: 2 files compared, 1 differ in the last digits
      Seed_Magnetic_Fields: magnetized_explosionTOV
         Success: 2 files compared, 1 differ in the last digits
      SlabTest: slabtest
         Success: 2 files identical
      SpacetimeWaveToyX: standing
         Success: 114 files compared, 23 differ in the last digits
      SphericalHarmonicRecon: regression_test
         Success: 16 files compared, 8 differ in the last digits
      SphericalHarmonicReconGen: SpEC-dat-test
         Success: 126 files compared, 63 differ in the last digits
      SphericalHarmonicReconGen: SpEC-h5-test
         Success: 126 files compared, 63 differ in the last digits
      StaggeredWaveToyX: standing
         Success: 130 files compared, 25 differ in the last digits
      TOVSolver: test_one_boost_max
         Success: 464 files compared, 4 differ in the last digits
      TOVSolver: test_one_static_max
         Success: 464 files compared, 8 differ in the last digits
      TOVSolver: test_tov_carpet
         Success: 232 files compared, 2 differ in the last digits
      TOVSolver: test_two_av
         Success: 464 files compared, 3 differ in the last digits
      TOVSolver: test_two_max
         Success: 464 files compared, 5 differ in the last digits
      TOVola: Piecewise_test
         Success: 70 files compared, 1 differ in the last digits
      TOVola: Simple_test
         Success: 70 files compared, 1 differ in the last digits
      TerminationTrigger: file
         Success: 2 files identical
      TerminationTrigger: signal
         Success: 2 files identical
      TerminationTrigger: walltime
         Success: 2 files identical
      TestArrayGroup: testarraygroup
         Success: 36 files identical
      TestArrays: arrays
         Success: 20 files identical
      TestArrays: arrays0
         Success: 14 files identical
      TestComplex: TestComplex
         Success: 22 files identical
      TestComplex: TestComplexPow
         Success: 4 files identical
      TestDerivs: derivs-2nd-order
         Success: 18 files compared, 9 differ in the last digits
      TestDerivs: derivs-4th-order
         Success: 18 files compared, 9 differ in the last digits
      TestDerivs: derivs-6th-order
         Success: 18 files compared, 9 differ in the last digits
      TestFpointerNULL: test_fpointer_null
         Success: 12 files identical
      TestGlobalReduce: TestAvg
         Success: 4 files identical
      TestGlobalReduce: TestAvg_dest0
         Success: 4 files identical
      TestGlobalReduce: TestMax
         Success: 4 files identical
      TestGlobalReduce: TestMax_dest0
         Success: 4 files identical
      TestGlobalReduce: TestMin
         Success: 4 files identical
      TestGlobalReduce: TestMin_dest0
         Success: 4 files identical
      TestGlobalReduce: TestScalar
         Success: 4 files identical
      TestGlobalReduce: TestSum
         Success: 4 files identical
      TestGlobalReduce: TestSum_dest0
         Success: 4 files identical
      TestGlobalReduce: TestWeightAvg
         Success: 4 files identical
      TestGlobalReduce: TestWeightMax
         Success: 4 files identical
      TestGlobalReduce: TestWeightMin
         Success: 4 files identical
      TestGlobalReduce: TestWeightSum
         Success: 4 files identical
      TestGlobalReduce: gaussianMax
         Success: 2 files identical
      TestGlobalReduce: gaussianMax_dest0
         Success: 2 files identical
      TestGlobalReduce: gaussianSum
         Success: 2 files compared, 1 differ in the last digits
      TestGlobalReduce: gaussianSum_dest0
         Success: 2 files compared, 1 differ in the last digits
      TestInterpolate: cell_interpolate
         Success: 6 files compared, 2 differ in the last digits
      TestInterpolate: vertex_interpolate
         Success: 6 files compared, 2 differ in the last digits
      TestLocalInterp2: test_local_interp_2
         Success: 4 files identical
      TestLocalReduce: TestAvg
         Success: 12 files identical
      TestLocalReduce: TestMax
         Success: 12 files identical
      TestLocalReduce: TestSum
         Success: 12 files identical
      TestLoop: testloop
         Success: 16 files compared, 8 differ in the last digits
      TestLoopControl: testloop
         Success: 16 files compared, 4 differ in the last digits
      TestMoL: ICN
         Success: 24 files identical
      TestMoL: ICN-avg
         Success: 24 files identical
      TestMoL: RK2
         Success: 24 files identical
      TestMoL: RK2-MR-2-1
         Success: 20 files identical
      TestMoL: RK2-central
         Success: 24 files identical
      TestMoL: RK3
         Success: 24 files identical
      TestMoL: RK4
         Success: 24 files identical
      TestMoL: RK4-MR-2-1
         Success: 20 files identical
      TestMoL: RK4-RK2
         Success: 20 files identical
      TestMoL: RK45
         Success: 12 files identical
      TestMoL: RK45CK
         Success: 12 files identical
      TestMoL: RK65
         Success: 12 files identical
      TestMoL: RK87
         Success: 12 files identical
      TestNorms: norms
         Success: 18 files compared, 9 differ in the last digits
      TestODESolvers: test-constant
         Success: 14 files identical
      TestODESolvers: test-dp87
         Success: 14 files compared, 6 differ in the last digits
      TestODESolvers: test-euler
         Success: 14 files identical
      TestODESolvers: test-rk2
         Success: 14 files identical
      TestODESolvers: test-rk3
         Success: 14 files identical
      TestODESolvers: test-rk4
         Success: 14 files compared, 3 differ in the last digits
      TestODESolvers: test-rkf78
         Success: 14 files identical
      TestODESolvers: test-ssprk3
         Success: 14 files identical
      TestODESolvers2: test-constant
         Success: 36 files identical
      TestODESolvers2: test-dp87
         Success: 36 files identical
      TestODESolvers2: test-euler
         Success: 36 files identical
      TestODESolvers2: test-rk2
         Success: 36 files identical
      TestODESolvers2: test-rk3
         Success: 36 files identical
      TestODESolvers2: test-rk4
         Success: 36 files identical
      TestODESolvers2: test-rkf78
         Success: 36 files identical
      TestODESolvers2: test-ssprk3
         Success: 36 files identical
      TestOutput: checkpoint-openpmd
         Success: 40 files identical
      TestOutput: output-arrays
         Success: 20 files identical
      TestOutput: output-every0
         Success: 0 files identical
      TestOutput: output-every1
         Success: 66 files identical
      TestOutput: output-every3
         Success: 24 files identical
      TestOutput: output-openpmd
         Success: 20 files identical
      TestOutput: output-tsv-every0
         Success: 0 files identical
      TestOutput: output-tsv-every1
         Success: 66 files identical
      TestOutput: output-tsv-every3
         Success: 24 files identical
      TestOutput: recover-openpmd
         Success: 40 files identical
      TestPar: expressions
         Success: 2 files identical
      TestProlongate: test_cc_co_o1
         Success: 384 files compared, 152 differ in the last digits
      TestProlongate: test_cc_nc_o1
         Success: 384 files compared, 149 differ in the last digits
      TestProlongate: test_cc_nc_o3
         Success: 384 files compared, 147 differ in the last digits
      TestProlongate: test_ddf_o1
         Success: 384 files compared, 149 differ in the last digits
      TestProlongate: test_ddf_o3
         Success: 384 files compared, 150 differ in the last digits
      TestProlongate: test_ddf_o5
         Success: 384 files compared, 151 differ in the last digits
      TestProlongate: test_ddf_o7
         Success: 384 files compared, 150 differ in the last digits
      TestProlongate: test_eno_o3
         Success: 384 files compared, 155 differ in the last digits
      TestProlongate: test_eno_per_group_o3
         Success: 384 files compared, 155 differ in the last digits
      TestProlongate: test_hermite_o1
         Success: 384 files compared, 149 differ in the last digits
      TestProlongate: test_hermite_o3
         Success: 384 files compared, 148 differ in the last digits
      TestProlongate: test_hermite_o5
         Success: 384 files compared, 152 differ in the last digits
      TestProlongate: test_natural_o1
         Success: 384 files compared, 150 differ in the last digits
      TestProlongate: test_natural_o3
         Success: 384 files compared, 150 differ in the last digits
      TestProlongate: test_natural_o5
         Success: 384 files compared, 152 differ in the last digits
      TestProlongate: test_natural_o7
         Success: 384 files compared, 147 differ in the last digits
      TestProlongate: test_poly_cons3lfb_o1
         Success: 384 files compared, 154 differ in the last digits
      TestProlongate: test_poly_cons3lfb_o3
         Success: 384 files compared, 154 differ in the last digits
      TestProlongate: test_poly_cons3lfb_o5
         Success: 384 files compared, 158 differ in the last digits
      TestReadWrite: ReadWriteCarpet
         Success: 38 files identical
      Trigger: trigger
         Success: 20 files identical
      TwoPunctures: bhns_eval
         Success: 384 files compared, 23 differ in the last digits
      TwoPunctures: bhns_interp
         Success: 384 files compared, 20 differ in the last digits
      TwoPunctures: twopunctures
         Success: 170 files identical
      TwoPunctures: twopunctures_carpet
         Success: 10 files compared, 1 differ in the last digits
      TwoPunctures_BBHSF: SF_twopuncturesID_test
         Success: 30 files compared, 9 differ in the last digits
      TwoPunctures_KerrProca: twopunctures_kerrproca_c11
         Success: 8 files compared, 4 differ in the last digits
      Vectors: vectors
         Success: 2 files identical
      VolumeIntegrals_GRMHD: magnetized_explosionTOV
         Success: 2 files compared, 1 differ in the last digits
      VolumeIntegrals_vacuum: magnetized_explosionTOV
         Success: 2 files compared, 1 differ in the last digits
      WaveBinarySource: test_binary_1
         Success: 18 files identical
      WaveMoL: gaussian
         Success: 34 files identical
      WaveToy1DF77: wavetoy1df77
         Success: 12 files identical
      WaveToy2DF77: test_WaveToy2D
         Success: 14 files identical
      WaveToyC: test_rad
         Success: 12 files identical
      WaveToyC: wave_output
         Success: 26 files identical
      WaveToyCXX: test_rad
         Success: 12 files compared, 1 differ in the last digits
      WaveToyExtra: test_custom
         Success: 10 files identical
      WaveToyF77: test_rad
         Success: 12 files compared, 1 differ in the last digits
      WaveToyF77: test_rob
         Success: 12 files identical
      WaveToyF90: test_rad
         Success: 12 files compared, 1 differ in the last digits
      WaveToyF90: test_wavef90_flat
         Success: 12 files compared, 1 differ in the last digits
      WaveToyF90: test_wavef90_zero
         Success: 12 files compared, 1 differ in the last digits
      WaveToyFreeF90: test_rad
         Success: 12 files compared, 1 differ in the last digits
      WaveToyX: presync
         Success: 58 files compared, 13 differ in the last digits
      WaveToyX: radiative
         Success: 58 files compared, 16 differ in the last digits
      WaveToyX: reflecting
         Success: 58 files compared, 16 differ in the last digits
      WaveToyX: standing
         Success: 58 files compared, 16 differ in the last digits
      WeylScal4: teukolsky
         Success: 16 files compared, 6 differ in the last digits
      WeylScal4: teukolskyID
         Success: 16 files compared, 6 differ in the last digits
      WeylScal4: teukolskyParity
         Success: 6 files compared, 3 differ in the last digits
      particle_tracerET: magnetized_explosionTOV
         Success: 6 files compared, 1 differ in the last digits
      smallbPoynET: magnetized_explosionTOV
         Success: 16 files compared, 3 differ in the last digits

========================================================================

  Summary for configuration sim

    Time                     -> Mon Nov 18 14:17:32 CST 2024
    Host                     -> ccc0368.campuscluster.illinois.edu
    Processes                -> 2
    User                     -> rhaas

    Total available tests    -> 433
    Unrunnable tests         -> 15
    Runnable tests           -> 418
    Total number of thorns   -> 306
    Number of tested thorns  -> 119
    Number of tests passed   -> 417
    Number passed only to
               set tolerance -> 278
    Number failed            -> 1

  Tests passed:

    tov (from ADMMass)
    tov_carpet (from ADMMass)
    test_AHF_1 (from AHFinder)
    test_AHF_2 (from AHFinder)
    Kerr (from AHFinderDirect)
    Kerr-Cartoon (from AHFinderDirect)
    Kerr-Cartoon-EE (from AHFinderDirect)
    Kerr-EE (from AHFinderDirect)
    Kerr-definition-expansion (from AHFinderDirect)
    Kerr-definition-expansion-EE (from AHFinderDirect)
    Kerr-definition-expansion-product (from AHFinderDirect)
    Kerr-definition-expansion-product-EE (from AHFinderDirect)
    Kerr-definition-inner-expansion (from AHFinderDirect)
    Kerr-definition-inner-expansion-EE (from AHFinderDirect)
    Kerr-definition-mean-curvature (from AHFinderDirect)
    Kerr-definition-mean-curvature-EE (from AHFinderDirect)
    Kerr-modification-radius (from AHFinderDirect)
    Kerr-modification-radius-EE (from AHFinderDirect)
    Kerr-rotating-180 (from AHFinderDirect)
    Kerr-rotating-180-EE (from AHFinderDirect)
    Kerr-rotating-90 (from AHFinderDirect)
    Kerr-rotating-90-EE (from AHFinderDirect)
    Kerr-selection-areal-radius (from AHFinderDirect)
    Kerr-selection-areal-radius-EE (from AHFinderDirect)
    Kerr-selection-areal-radius-definition-expansion-product (from AHFinderDirect)
    Kerr-selection-areal-radius-definition-expansion-product-EE (from AHFinderDirect)
    Kerr-selection-mean-coordinate-radius (from AHFinderDirect)
    Kerr-selection-mean-coordinate-radius-EE (from AHFinderDirect)
    checkpointML-EE (from AHFinderDirect)
    misner1.2-025 (from AHFinderDirect)
    recoverML-EE (from AHFinderDirect)
    Baikal_PreSync (from Baikal)
    magnetizedTOV-Baikal (from Baikal)
    BaikalVacuum_EE_O8_sgw3d (from BaikalVacuum)
    BaikalVacuum_PreSync (from BaikalVacuum)
    levels1 (from BoxInBox)
    levels2 (from BoxInBox)
    levels20 (from BoxInBox)
    levels3 (from BoxInBox)
    regions2 (from BoxInBox)
    regions3 (from BoxInBox)
    unigrid (from BoxInBox)
    boostedpuncture (from CT_MultiLevel)
    constraints_spherical (from CT_MultiLevel)
    poisson (from CT_MultiLevel)
    64k2 (from Carpet)
    kasner (from Carpet)
    kasner_amr (from Carpet)
    no-overlap (from Carpet)
    overlap (from Carpet)
    presync (from Carpet)
    test_restrict_sync (from Carpet)
    CarpetEvolutionMask_test (from CarpetEvolutionMask)
    CarpetEvolutionMask_test_off (from CarpetEvolutionMask)
    buffer_mask (from CarpetEvolutionMask)
    compact (from CarpetIOASCII)
    coords (from CarpetIOASCII)
    grid-coords (from CarpetIOASCII)
    newsep (from CarpetIOASCII)
    CarpetWaveToyNewRecover_test_1proc (from CarpetIOHDF5)
    CarpetWaveToyRecover_test_1proc (from CarpetIOHDF5)
    CarpetWaveToyRecover_test_2proc (from CarpetIOHDF5)
    newsep (from CarpetIOHDF5)
    nobuffers (from CarpetIOHDF5)
    presyncRecover (from CarpetIOHDF5)
    coords (from CarpetIOScalar)
    coords2 (from CarpetIOScalar)
    coords3 (from CarpetIOScalar)
    coords4 (from CarpetIOScalar)
    newsep (from CarpetIOScalar)
    carpetintegrate (from CarpetIntegrateTest)
    carpetintegrate-linear (from CarpetIntegrateTest)
    waveinterp-1p (from CarpetInterp)
    waveinterp-2p (from CarpetInterp)
    test_cc_horest_o3 (from CarpetProlongateTest)
    test_cc_horest_o5 (from CarpetProlongateTest)
    test_cc_o0 (from CarpetProlongateTest)
    test_cc_o1 (from CarpetProlongateTest)
    test_cc_o2 (from CarpetProlongateTest)
    test_cc_o3 (from CarpetProlongateTest)
    test_cc_o4 (from CarpetProlongateTest)
    test_cc_o5 (from CarpetProlongateTest)
    test_cc_rest_o0 (from CarpetProlongateTest)
    test_cc_rest_o1 (from CarpetProlongateTest)
    test_cc_rest_o2 (from CarpetProlongateTest)
    test_cc_rest_o3 (from CarpetProlongateTest)
    test_cc_rest_o4 (from CarpetProlongateTest)
    test_cc_rest_o5 (from CarpetProlongateTest)
    test_cc_tvd (from CarpetProlongateTest)
    test_cc_tvd_hi (from CarpetProlongateTest)
    test_cc_tvd_x (from CarpetProlongateTest)
    test_cc_tvd_y (from CarpetProlongateTest)
    test_cc_tvd_z (from CarpetProlongateTest)
    test_interp (from CarpetProlongateTest)
    test_o1 (from CarpetProlongateTest)
    test_o11 (from CarpetProlongateTest)
    test_o3 (from CarpetProlongateTest)
    test_o5 (from CarpetProlongateTest)
    test_o7 (from CarpetProlongateTest)
    test_o9 (from CarpetProlongateTest)
    nonstaggered (from CarpetReduce)
    nonstaggered_excl (from CarpetReduce)
    periodic_weight (from CarpetReduce)
    staggered (from CarpetReduce)
    regrid2_2D (from CarpetRegrid2)
    regrid2_2cen (from CarpetRegrid2)
    regrid2_2cen_minfrac (from CarpetRegrid2)
    regrid2_granularity (from CarpetRegrid2)
    carpet (from Cartoon2D)
    schw-0050 (from Cartoon2D)
    test_cartoon_2 (from Cartoon2D)
    test_cartoon_3 (from Cartoon2D)
    test7patch (from Coordinates)
    DNSdata_test (from DNSdata)
    test_ah (from Dissipation)
    test_ob (from Dissipation)
    E2xeon_test_dbh (from DistortedBHIVP)
    test_dbh (from DistortedBHIVP)
    eos_omni (from EOS_Omni)
    GaugeWave (from EinsteinExact_Test)
    KS-tilted-EE (from EinsteinExact_Test)
    KerrSchild (from EinsteinExact_Test)
    Minkowski (from EinsteinExact_Test)
    ModifiedSchwarzschildBL (from EinsteinExact_Test)
    ShiftedGaugeWave (from EinsteinExact_Test)
    Vaidya2 (from EinsteinExact_Test)
    Schwarzschild_EF (from Exact)
    bowl-init (from Exact)
    de_Sitter (from Exact)
    qc0-mclachlan (from Extract)
    FLRW_singlemode_test (from FLRWSolver)
    FishboneMoncrief_IllinoisGRMHD-LLR (from FishboneMoncriefID)
    radiative (from FluxWaveToyX)
    reflecting (from FluxWaveToyX)
    standing (from FluxWaveToyX)
    Balsara0 (from GRHayLHD)
    TOV (from GRHayLHD)
    GRHydro_test_shock (from GRHydro)
    GRHydro_test_shock_hllc (from GRHydro)
    GRHydro_test_shock_mp5 (from GRHydro)
    GRHydro_test_shock_ppm (from GRHydro)
    GRHydro_test_shock_weno (from GRHydro)
    GRHydro_test_tov_ppm_ML (from GRHydro)
    GRHydro_test_tov_ppm_ML_disable_internal_excision (from GRHydro)
    GRHydro_test_tov_ppm_no_trp_ML (from GRHydro)
    balsara1_1d (from GRHydro)
    balsara1_1d_dc (from GRHydro)
    balsara1_2d (from GRHydro)
    balsara1_2d_dc (from GRHydro)
    balsara2_1d (from GRHydro)
    balsara2_2d (from GRHydro)
    balsara3_1d (from GRHydro)
    balsara3_2d (from GRHydro)
    balsara4_1d (from GRHydro)
    balsara4_2d (from GRHydro)
    balsara5_1d (from GRHydro)
    balsara5_2d (from GRHydro)
    cylexp_tvd_mc2_hlle (from GRHydro)
    cylexp_tvd_mc2_hlle_dc (from GRHydro)
    test_one_hybrid (from GRHydro)
    test_tov_carpet_refined_nosync (from GRHydro)
    tov_carpetevolutionmask (from GRHydro)
    tov_carpetevolutionmask2 (from GRHydro)
    tov_slowsector (from GRHydro)
    magtov_poloidal (from GRHydro_InitData)
    magtov_poloidal_poloidal_P_p_2 (from GRHydro_InitData)
    GiRaFFE_tests_AlfvenWave (from GiRaFFE)
    GiRaFFE_tests_AlignedRotator (from GiRaFFE)
    GiRaFFE_tests_DegenAlfvenWave (from GiRaFFE)
    GiRaFFE_tests_ExactWald (from GiRaFFE)
    GiRaFFE_tests_FFEBreak (from GiRaFFE)
    GiRaFFE_tests_FastWave (from GiRaFFE)
    GiRaFFE_tests_MagnetoWald (from GiRaFFE)
    GiRaFFE_tests_SplitMonopole (from GiRaFFE)
    GiRaFFE_tests_ThreeWave (from GiRaFFE)
    test_restrict_sync (from HighOrderWaveTest)
    tov_mass_test (from Hydro_Analysis)
    two_tov (from Hydro_Analysis)
    diag_flip_pugh_eno (from Hydro_InitExcision)
    diag_pugh_eno (from Hydro_InitExcision)
    sphere_pugh_ppm (from Hydro_InitExcision)
    x_flip_pugh_eno (from Hydro_InitExcision)
    x_pugh_eno (from Hydro_InitExcision)
    rnsA2 (from Hydro_RNSID)
    kerr (from IDAnalyticBH)
    test_bl (from IDAnalyticBH)
    test_misner (from IDAnalyticBH)
    test_axibrill (from IDAxiBrillBH)
    test_axibrill_nostagger (from IDAxiBrillBH)
    E2xeon_test_axioddbh (from IDAxiOddBrillBH)
    test_axioddbh (from IDAxiOddBrillBH)
    ConstraintViolate (from IDConstraintViolate)
    test_pw_ADM_dir-x (from IDLinearWaves)
    test_pw_ADM_dir-z (from IDLinearWaves)
    test_waveell (from IDScalarWaveElliptic)
    test_recover (from IOHDF5)
    Balsara1 (from IllinoisGRMHD)
    Balsara2 (from IllinoisGRMHD)
    Balsara3 (from IllinoisGRMHD)
    Balsara5 (from IllinoisGRMHD)
    magnetizedTOV (from IllinoisGRMHD)
    wavetoy (from InterpToArray)
    wavetoy2 (from InterpToArray)
    LeanBSSN_BY (from LeanBSSNMoL)
    LeanBSSN_BY-spin (from LeanBSSNMoL)
    LeanBSSN_BY-spin-no-gauge (from LeanBSSNMoL)
    LeanBSSN_BY-spin-no-lapse (from LeanBSSNMoL)
    LeanBSSN_BY-spin-no-shift (from LeanBSSNMoL)
    LeanBSSN_schw (from LeanBSSNMoL)
    llamawavetoy_6patch (from LlamaWaveToy)
    llamawavetoy_7patch (from LlamaWaveToy)
    test-minkowski-carpet-1lev (from LoopControl)
    ML_ADMConstraints (from ML_BSSN_Test)
    ML_BSSN_EE_sgw3d (from ML_BSSN_Test)
    ML_BSSN_EE_sgw3d_rhs (from ML_BSSN_Test)
    ML_BSSN_MP_O8_bh (from ML_BSSN_Test)
    ML_BSSN_NewRad (from ML_BSSN_Test)
    ML_BSSN_O8_sgw3d (from ML_BSSN_Test)
    ML_BSSN_sgw3d (from ML_BSSN_Test)
    ML_BSSN_sgw3d_harmonic (from ML_BSSN_Test)
    ML_BSSN_sgw3d_harmonic_phi (from ML_BSSN_Test)
    ML_BSSN_sgw3d_rhs (from ML_BSSN_Test)
    ML_CCZ4_sgw3d (from ML_CCZ4_Test)
    ML_CCZ4_sgw3d_rhs (from ML_CCZ4_Test)
    gaussian-RK4 (from ML_WaveToy_Test)
    gaussian-RK45 (from ML_WaveToy_Test)
    gaussian-RK45-adaptive (from ML_WaveToy_Test)
    memspeed (from MemSpeed)
    test_22 (from Multipole)
    test_31 (from Multipole)
    test_44 (from Multipole)
    test_driscollhealy (from Multipole)
    test_midpoint (from Multipole)
    test_rads (from Multipole)
    test_simpson (from Multipole)
    test_trapezoidal (from Multipole)
    test_vars (from Multipole)
    teukolsky (from NPScalars)
    LeanBSSN_Ei_mu0.4_c0.05 (from NPScalars_Proca)
    nancount (from NaNChecker)
    moving_tov (from Outflow)
    ml-gw1d-small (from PeriodicCarpet)
    ml-gw1d-small-amr (from PeriodicCarpet)
    testperiodicinterp (from PeriodicCarpet)
    LeanBSSN_Ei_mu0.4_c0.05 (from ProcaEvolve)
    ML_BSSN_Ei_mu0.4_c0.05 (from ProcaEvolve)
    LeanBSSN_Ei_mu0.4_c0.05 (from Proca_simpleID)
    qlm-bl (from QuasiLocalMeasures)
    qlm-ks (from QuasiLocalMeasures)
    qlm-ks-EE (from QuasiLocalMeasures)
    qlm-ks-boosted (from QuasiLocalMeasures)
    qlm-ks-shifted (from QuasiLocalMeasures)
    qlm-ks-tilted (from QuasiLocalMeasures)
    qlm-minkowski (from QuasiLocalMeasures)
    admhydro (from ReadInterpolate)
    synthetic (from ReadInterpolate)
    E2xeon_test_rdbh (from RotatingDBHIVP)
    test_rdbh (from RotatingDBHIVP)
    Kerr-EE (from RotatingSymmetry180)
    Kerr-rotating-180-EE (from RotatingSymmetry180)
    Kerr-rotating-180-staggered-EE (from RotatingSymmetry180)
    Kerr-staggered-EE (from RotatingSymmetry180)
    KerrSchild-rotating-180-EE (from RotatingSymmetry180)
    Kerr-rotating-90-EE (from RotatingSymmetry90)
    Kerr-rotating-90-staggered-EE (from RotatingSymmetry90)
    KerrSchild-rotating-90-EE (from RotatingSymmetry90)
    standing (from SIMDWaveToyX)
    wavetoyc (from SampleBoundary)
    SF_boundstateID_test (from ScalarEvolve)
    SF_constantID_test (from ScalarEvolve)
    SF_gaussmultipoleID_test (from ScalarEvolve)
    large_Afield_BNS (from Seed_Magnetic_Fields)
    magnetized_explosionTOV (from Seed_Magnetic_Fields)
    slabtest (from SlabTest)
    standing (from SpacetimeWaveToyX)
    regression_test (from SphericalHarmonicRecon)
    SpEC-dat-test (from SphericalHarmonicReconGen)
    SpEC-h5-test (from SphericalHarmonicReconGen)
    standing (from StaggeredWaveToyX)
    test_one_boost_max (from TOVSolver)
    test_one_static_max (from TOVSolver)
    test_tov_carpet (from TOVSolver)
    test_two_av (from TOVSolver)
    test_two_max (from TOVSolver)
    Piecewise_test (from TOVola)
    Simple_test (from TOVola)
    file (from TerminationTrigger)
    signal (from TerminationTrigger)
    walltime (from TerminationTrigger)
    testarraygroup (from TestArrayGroup)
    arrays (from TestArrays)
    arrays0 (from TestArrays)
    TestComplex (from TestComplex)
    TestComplexPow (from TestComplex)
    derivs-2nd-order (from TestDerivs)
    derivs-4th-order (from TestDerivs)
    derivs-6th-order (from TestDerivs)
    test_fpointer_null (from TestFpointerNULL)
    TestAvg (from TestGlobalReduce)
    TestAvg_dest0 (from TestGlobalReduce)
    TestMax (from TestGlobalReduce)
    TestMax_dest0 (from TestGlobalReduce)
    TestMin (from TestGlobalReduce)
    TestMin_dest0 (from TestGlobalReduce)
    TestScalar (from TestGlobalReduce)
    TestSum (from TestGlobalReduce)
    TestSum_dest0 (from TestGlobalReduce)
    TestWeightAvg (from TestGlobalReduce)
    TestWeightMax (from TestGlobalReduce)
    TestWeightMin (from TestGlobalReduce)
    TestWeightSum (from TestGlobalReduce)
    gaussianMax (from TestGlobalReduce)
    gaussianMax_dest0 (from TestGlobalReduce)
    gaussianSum (from TestGlobalReduce)
    gaussianSum_dest0 (from TestGlobalReduce)
    cell_interpolate (from TestInterpolate)
    vertex_interpolate (from TestInterpolate)
    test_local_interp_2 (from TestLocalInterp2)
    TestAvg (from TestLocalReduce)
    TestMax (from TestLocalReduce)
    TestSum (from TestLocalReduce)
    testloop (from TestLoop)
    testloop (from TestLoopControl)
    ICN (from TestMoL)
    ICN-avg (from TestMoL)
    RK2 (from TestMoL)
    RK2-MR-2-1 (from TestMoL)
    RK2-central (from TestMoL)
    RK3 (from TestMoL)
    RK4 (from TestMoL)
    RK4-MR-2-1 (from TestMoL)
    RK4-RK2 (from TestMoL)
    RK45 (from TestMoL)
    RK45CK (from TestMoL)
    RK65 (from TestMoL)
    RK87 (from TestMoL)
    norms (from TestNorms)
    test-constant (from TestODESolvers)
    test-dp87 (from TestODESolvers)
    test-euler (from TestODESolvers)
    test-rk2 (from TestODESolvers)
    test-rk3 (from TestODESolvers)
    test-rk4 (from TestODESolvers)
    test-rkf78 (from TestODESolvers)
    test-ssprk3 (from TestODESolvers)
    test-constant (from TestODESolvers2)
    test-dp87 (from TestODESolvers2)
    test-euler (from TestODESolvers2)
    test-rk2 (from TestODESolvers2)
    test-rk3 (from TestODESolvers2)
    test-rk4 (from TestODESolvers2)
    test-rkf78 (from TestODESolvers2)
    test-ssprk3 (from TestODESolvers2)
    checkpoint-openpmd (from TestOutput)
    output-arrays (from TestOutput)
    output-every0 (from TestOutput)
    output-every1 (from TestOutput)
    output-every3 (from TestOutput)
    output-openpmd (from TestOutput)
    output-tsv-every0 (from TestOutput)
    output-tsv-every1 (from TestOutput)
    output-tsv-every3 (from TestOutput)
    recover-openpmd (from TestOutput)
    expressions (from TestPar)
    test_cc_co_o1 (from TestProlongate)
    test_cc_nc_o1 (from TestProlongate)
    test_cc_nc_o3 (from TestProlongate)
    test_ddf_o1 (from TestProlongate)
    test_ddf_o3 (from TestProlongate)
    test_ddf_o5 (from TestProlongate)
    test_ddf_o7 (from TestProlongate)
    test_eno_o3 (from TestProlongate)
    test_eno_per_group_o3 (from TestProlongate)
    test_hermite_o1 (from TestProlongate)
    test_hermite_o3 (from TestProlongate)
    test_hermite_o5 (from TestProlongate)
    test_natural_o1 (from TestProlongate)
    test_natural_o3 (from TestProlongate)
    test_natural_o5 (from TestProlongate)
    test_natural_o7 (from TestProlongate)
    test_poly_cons3lfb_o1 (from TestProlongate)
    test_poly_cons3lfb_o3 (from TestProlongate)
    test_poly_cons3lfb_o5 (from TestProlongate)
    ReadWriteCarpet (from TestReadWrite)
    trigger (from Trigger)
    bhns_eval (from TwoPunctures)
    bhns_interp (from TwoPunctures)
    twopunctures (from TwoPunctures)
    twopunctures_carpet (from TwoPunctures)
    SF_twopuncturesID_test (from TwoPunctures_BBHSF)
    twopunctures_kerrproca_c11 (from TwoPunctures_KerrProca)
    vectors (from Vectors)
    magnetized_explosionTOV (from VolumeIntegrals_GRMHD)
    magnetized_explosionTOV (from VolumeIntegrals_vacuum)
    test_binary_1 (from WaveBinarySource)
    gaussian (from WaveMoL)
    wavetoy1df77 (from WaveToy1DF77)
    test_WaveToy2D (from WaveToy2DF77)
    test_rad (from WaveToyC)
    wave_output (from WaveToyC)
    test_rad (from WaveToyCXX)
    test_custom (from WaveToyExtra)
    test_rad (from WaveToyF77)
    test_rob (from WaveToyF77)
    test_rad (from WaveToyF90)
    test_wavef90_flat (from WaveToyF90)
    test_wavef90_zero (from WaveToyF90)
    test_rad (from WaveToyFreeF90)
    presync (from WaveToyX)
    radiative (from WaveToyX)
    reflecting (from WaveToyX)
    standing (from WaveToyX)
    teukolsky (from WeylScal4)
    teukolskyID (from WeylScal4)
    teukolskyParity (from WeylScal4)
    magnetized_explosionTOV (from particle_tracerET)
    magnetized_explosionTOV (from smallbPoynET)

  Tests failed:

    Balsara0 (from GRHayLHDX)

========================================================================
